"Resource/UI/HudAccountPanel.res"
{
	"CHudAccountPanel"
	{
		"delta_item_x"			"28"
		"delta_item_start_y"	"90"
		"delta_item_end_y"		"70"
		"PositiveColor"			"0 255 0 255"
		"NegativeColor"			"255 0 0 255"
		"delta_lifetime"		"1.5"
		"delta_item_font"		"TacoSuperBoldSmall"
	}
	
	"AccountBG"
	{
		"ControlName"	"CTFImagePanel"
		"fieldName"		"AccountBG"
		"xpos"			"999999"
		"ypos"			"99999"
		"zpos"			"0"
		"wide"			"84"
		"tall"			"42"
		"visible"		"1"
		"enabled"		"1"
		"image"			"../hud/misc_ammo_area_blue"
		"scaleImage"	"1"	
		"teambg_2"		"../hud/misc_ammo_area_red"
		"teambg_2_lodef"	"../hud/misc_ammo_area_red_lodef"
		"teambg_3"		"../hud/misc_ammo_area_blue"
		"teambg_3_lodef"	"../hud/misc_ammo_area_blue_lodef"
	}
	
	"MetalIcon"	
	{
		"ControlName"	"CIconPanel"
		"fieldName"		"MetalIcon"
		"xpos"			"9999"
		"xpos_lodef"	"9999"
		"ypos"			"116"
		"ypos_lodef"	"112"
		"zpos"			"1"
		"wide"			"10"
		"wide_lodef"	"15"
		"tall"			"10"
		"tall_lodef"	"15"
		"visible"		"1"
		"enabled"		"1"
		"scaleImage"	"1"	
		"icon"			"ico_metal"
		"iconColor"		"ProgressOffWhite"
	}
	
	"AccountValue"
	{
		"ControlName"	"CExLabel"
		"fieldName"		"AccountValue"
		"xpos"			"20"
		"ypos"			"112"
		"ypos_lodef"	"121"
		"zpos"			"2"
		"wide"			"55"
		"tall"			"26"
		"autoResize"	"1"
		"pinCorner"		"2"
		"visible"		"1"
		"enabled"		"1"
		"tabPosition"	"0"
		"labelText"		"%metal%"
		"textAlignment"	"center"
		"dulltext"		"0"
		"brighttext"	"0"
		"font"			"TacoSuperBoldSmall"
		"font_lodef"	"TacoSuperBoldSmall"
		"fgcolor" 		"White"
	}
	"AccountValueShadow"
	{
		"ControlName"			"CExLabel"
		"fieldName"				"AccountValueShadow"
		"xpos"					"29"
		"ypos"					"116"
		"zpos"					"1"
		"wide"					"40"
		"tall"					"20"	
		"pinCorner"				"2"
		"visible"				"1"
		"enabled"				"1"
		"tabPosition"			"0"
		"labelText"				"%metal%"
		"textAlignment"			"north"
		"dulltext"				"0"
		"brighttext"			"0"
		"font"					"TacoSuperBoldSmall"
		"fgcolor"		"Black"
	}
	"AccountValueLabel"
	{
		"ControlName"			"CExLabel"
		"fieldName"				"ItemEffectMeterLabel"
		"xpos"					"28"
		"ypos"					"132"
		"zpos"					"2"
		"wide"					"41"
		"tall"					"15"
		"autoResize"			"1"
		"pinCorner"				"2"
		"visible"				"1"
		"enabled"				"1"
		"tabPosition"			"0"
		"labelText"				"METAL"
		"textAlignment"			"center"
		"dulltext"				"0"
		"brighttext"			"0"
		"font"					"TacoDefaultSmall"
		"fgcolor"		"White"
	}
}