"Resource/UI/HudDemomanPipes.res"
{
	"background"
	{
		"ControlName"	"CTFImagePanel"
		"fieldName"		"background"
		"xpos"			"9999"
		"ypos"			"6"
		"zpos"			"0"
		"wide"			"76"
		"tall"			"38"
		"visible"		"1"
		"enabled"		"1"
		"image"			"../hud/misc_ammo_area_blue"
		"scaleImage"	"1"	
		"teambg_2"		"../hud/misc_ammo_area_red"
		"teambg_2_lodef"	"../hud/misc_ammo_area_red_lodef"
		"teambg_3"		"../hud/misc_ammo_area_blue"
		"teambg_3_lodef"	"../hud/misc_ammo_area_blue_lodef"				
	}
	
	"ChargeLabel"
	{
		"ControlName"			"CExLabel"
		"fieldName"				"ChargeLabel"
		"xpos"					"115"
		"ypos"					"111"
		"zpos"					"2"
		"wide"					"50"
		"tall"					"15"
		"autoResize"			"1"
		"pinCorner"				"2"
		"visible"				"1"
		"enabled"				"1"
		"tabPosition"			"0"
		"labelText"				"#TF_Charge"
		"textAlignment"			"center"
		"dulltext"				"0"
		"brighttext"			"0"
		"font"					"TacoDefaultSmall"
	}

	"ChargeMeter"
	{	
		"ControlName"			"ContinuousProgressBar"
		"fieldName"				"ChargeMeter"
		"font"					"Default"
		"xpos"					"40"
		"ypos"					"105"
		"zpos"					"2"
		"wide"					"200"
		"tall"					"5"				
		"autoResize"			"0"
		"pinCorner"				"0"
		"visible"				"1"
		"enabled"				"1"
		"textAlignment"			"Left"
		"dulltext"				"0"
		"brighttext"			"0"
	}				

	"PipesPresentPanel"
	{
		"ControlName"	"EditablePanel"
		"fieldName"		"PipesPresentPanel"
		"xpos"			"0"
		"ypos"			"0"
		"zpos"			"1"
		"wide"			"100"
		"tall"			"50"
		"visible"		"1"
		
		"DemoPipesLabelText"
		{
			"ControlName"			"CExLabel"
			"fieldName"				"DemoPipesLabelText"
			"xpos"					"37"
			"ypos"					"34"
			"zpos"					"2"
			"wide"					"41"
			"tall"					"15"
			"autoResize"			"1"
			"pinCorner"				"2"
			"visible"				"1"
			"enabled"				"1"
			"tabPosition"			"0"
			"labelText"				"PIPES"
			"textAlignment"			"center"
			"dulltext"				"0"
			"brighttext"			"0"
			"font"					"TacoDefaultSmall"
			"fgcolor"		"White"
		}

		"PipeIcon"
		{
			"ControlName"	"CTFImagePanel"
			"fieldName"		"PipeIcon"
			"xpos"			"9999"
			"ypos"			"16"
			"wide"			"20"
			"tall"			"20"
			"visible"		"1"
			"enabled"		"1"
			"image"			"../hud/ico_stickybomb_red"
			"scaleImage"	"1"
			"teambg_2"		"../hud/ico_stickybomb_red"
			"teambg_3"		"../hud/ico_stickybomb_blue"	
		}	
		
		"NumPipesLabel"
		{
			"ControlName"	"CExLabel"
			"fieldName"		"NumPipesLabel"
			"xpos"			"50"
			"ypos"			"18"
			"zpos"			"2"
			"wide"			"35"
			"tall"			"20"
			"tall_lodef"	"28"
			"autoResize"	"1"
			"pinCorner"		"2"
			"visible"		"1"
			"enabled"		"1"
			"tabPosition"	"0"
			"labelText"		"%activepipes%"
			"textAlignment"	"west"
			"dulltext"		"0"
			"brighttext"	"0"
			"font"			"TacoSuperBoldSmall"
			"font_lodef"	"TacoSuperBoldSmall"
			"fgcolor"		"White"
		}
		"NumPipesLabelDropshadow"
		{
			"ControlName"	"CExLabel"
			"fieldName"		"NumPipesLabelDropshadow"
			"xpos"			"51"
			"ypos"			"19"
			"zpos"			"2"
			"wide"			"35"
			"tall"			"20"
			"tall_lodef"	"28"
			"autoResize"	"1"
			"pinCorner"		"2"
			"visible"		"1"
			"enabled"		"1"
			"tabPosition"	"0"
			"labelText"		"%activepipes%"
			"textAlignment"	"west"
			"dulltext"		"0"
			"brighttext"	"0"
			"font"			"TacoSuperBoldSmall"
			"font_lodef"	"TacoSuperBoldSmall"
			"fgcolor"		"black"
		}		
	}
	
	"NoPipesPresentPanel"
	{
		"ControlName"	"EditablePanel"
		"fieldName"		"NoPipesPresentPanel"
		"xpos"			"0"
		"ypos"			"0"
		"zpos"			"1"
		"wide"			"100"
		"tall"			"50"
		"visible"		"1"
		
		"DemoPipesLabelText"
		{
			"ControlName"			"CExLabel"
			"fieldName"				"DemoPipesLabelText"
			"xpos"					"37"
			"ypos"					"34"
			"zpos"					"2"
			"wide"					"41"
			"tall"					"15"
			"autoResize"			"1"
			"pinCorner"				"2"
			"visible"				"1"
			"enabled"				"1"
			"tabPosition"			"0"
			"labelText"				"PIPES"
			"textAlignment"			"center"
			"dulltext"				"0"
			"brighttext"			"0"
			"font"					"TacoDefaultSmall"
			"fgcolor"		"White"
		}

		"PipeIcon"
		{
			"ControlName"	"CTFImagePanel"
			"fieldName"		"PipeIcon"
			"xpos"			"26"
			"ypos"			"9999"
			"wide"			"20"
			"tall"			"20"
			"visible"		"1"
			"enabled"		"1"
			"image"			"../hud/ico_stickybomb_red_faded"
			"scaleImage"	"1"
			"teambg_2"		"../hud/ico_stickybomb_red_faded"
			"teambg_3"		"../hud/ico_stickybomb_blue_faded"	
		}

		"NumPipesLabel"
		{
			"ControlName"	"CExLabel"
			"fieldName"		"NumPipesLabel"
			"xpos"			"50"
			"ypos"			"18"
			"zpos"			"2"
			"wide"			"35"
			"tall"			"20"
			"tall_lodef"	"28"
			"autoResize"	"1"
			"pinCorner"		"2"
			"visible"		"1"
			"enabled"		"1"
			"tabPosition"	"0"
			"labelText"		"%activepipes%"
			"textAlignment"	"west"
			"dulltext"		"1"
			"brighttext"	"0"
			"font"			"TacoSuperBoldSmall"
			"font_lodef"	"TacoSuperBoldSmall"
			"fgcolor"		"White"
		}
		"NumPipesLabelDropshadow"
		{
			"ControlName"	"CExLabel"
			"fieldName"		"NumPipesLabelDropshadow"
			"xpos"			"51"
			"ypos"			"19"
			"zpos"			"2"
			"wide"			"35"
			"tall"			"20"
			"tall_lodef"	"28"
			"autoResize"	"1"
			"pinCorner"		"2"
			"visible"		"1"
			"enabled"		"1"
			"tabPosition"	"0"
			"labelText"		"%activepipes%"
			"textAlignment"	"west"
			"dulltext"		"1"
			"brighttext"	"0"
			"font"			"TacoSuperBoldSmall"
			"font_lodef"	"TacoSuperBoldSmall"
			"fgcolor"		"black"
		}			
	}				
}
