"Resource/UI/HudItemEffectMeter_Engineer.res"
{
	HudItemEffectMeter
	{
		"fieldName"		"HudItemEffectMeter"
		"visible"		"1"
		"enabled"		"1"
		"xpos"			"c-100"
		"ypos"			"c50"
		"wide"			"100"
		"tall"			"50"
		"MeterFG"		"White"
		"MeterBG"		"Gray"
	}
	
	"ItemEffectMeterBG"
	{
		"ControlName"	"CTFImagePanel"
		"fieldName"		"ItemEffectMeterBG"
		"xpos"			"12"
		"ypos"			"0"
		"zpos"			"0"
		"wide"			"76"
		"tall"			"44"
		"visible"		"1"
		"enabled"		"1"
		"image"			"../hud/misc_ammo_area_blue"
		"scaleImage"	"1"	
		"teambg_2"		"../hud/misc_ammo_area_red"
		"teambg_2_lodef"	"../hud/misc_ammo_area_red_lodef"
		"teambg_3"		"../hud/misc_ammo_area_blue"
		"teambg_3_lodef"	"../hud/misc_ammo_area_blue_lodef"				
	}
	
	"ItemEffectMeterLabel"
	{
		"ControlName"			"CExLabel"
		"fieldName"				"ItemEffectMeterLabel"
		"xpos"					"25"
		"ypos"					"27"
		"zpos"					"2"
		"wide"					"41"
		"tall"					"15"
		"autoResize"			"1"
		"pinCorner"				"2"
		"visible"				"1"
		"enabled"				"1"
		"tabPosition"			"0"
		"labelText"				"#TF_Ball"
		"textAlignment"			"center"
		"dulltext"				"0"
		"brighttext"			"0"
		"font"					"TFFontSmall"
	}

	"ItemEffectMeter"
	{	
		"ControlName"			"ContinuousProgressBar"
		"fieldName"				"ItemEffectMeter"
		"font"					"Default"
		"xpos"					"25"
		"ypos"					"23"
		"zpos"					"2"
		"wide"					"40"
		"tall"					"6"				
		"autoResize"			"0"
		"pinCorner"				"0"
		"visible"				"0"
		"enabled"				"0"
		"textAlignment"			"Left"
		"dulltext"				"0"
		"brighttext"			"0"
	}					
	
	"ItemEffectMeterCount"
	{
		"ControlName"			"CExLabel"
		"fieldName"				"ItemEffectMeterCount"
		"xpos"					"25"
		"ypos"					"10"
		"zpos"					"2"
		"wide"					"40"
		"tall"					"20"	
		"pinCorner"				"2"
		"visible"				"1"
		"enabled"				"1"
		"tabPosition"			"0"
		"labelText"				"%progresscount%"
		"textAlignment"			"north"
		"dulltext"				"0"
		"brighttext"			"0"
		"font"					"TacoSuperBoldSmall"
	}
}
