"Resource/UI/HudPlayerClass.res"
{
	// CROSSHAIR SHIZNITS

	"Crosshair"
	{
		"ControlName"	"CExLabel"
		"fieldName"		"Crosshair"
		"xpos"			"c-25"
		"ypos"			"215"
		"zpos"			"5"
		"wide"			"50"
		"tall"			"50"
		"visible"		"1" // set to 1 to enable crosshair
		"enabled"		"1" // set to 1 to enable crosshair
		"labelText"		"Z"
		"textAlignment"	"center"	
		"font"			"TacoCrosshair"	// size: range 10-50
												// outline: on or off
		"fgcolor"		"255 255 255 0"
	}
	"CrosshairSecond"
	{
		"ControlName"	"CExLabel"
		"fieldName"		"CrosshairSecond"
		"xpos"			"c-25"
		"ypos"			"215"
		"zpos"			"5"
		"wide"			"50"
		"tall"			"50"
		"visible"		"1" // set to 1 to enable crosshair
		"enabled"		"1" // set to 1 to enable crosshair
		"labelText"		"l"
		"textAlignment"	"center"	
		"font"			"TacoCrosshair2"	// size: range 10-50
												// outline: on or off
		"fgcolor"		"255 255 255 255"
	}
	"CrosshairThird"
	{
		"ControlName"	"CExLabel"
		"fieldName"		"CrosshairThird"
		"xpos"			"c-25"
		"ypos"			"215"
		"zpos"			"5"
		"wide"			"50"
		"tall"			"50"
		"visible"		"1" // set to 1 to enable crosshair
		"enabled"		"1" // set to 1 to enable crosshair
		"labelText"		"9"
		"textAlignment"	"center"	
		"font"			"TacoCrosshair3"	// size: range 10-50
												// outline: on or off
		"fgcolor"		"255 255 255 255"
	}

	// player class data
	"HudPlayerClass"
	{
		"ControlName"	"EditablePanel"
		"fieldName"		"HudPlayerClass"
		"xpos"			"0"
		"ypos"			"0"
		"zpos"			"1"
		"wide"			"f0"
		"tall"			"480"
		"visible"		"1"
		"enabled"		"1"		
	}
	"PlayerStatusClassImage"
	{
		"ControlName"	"CTFClassImage"
		"fieldName"		"PlayerStatusClassImage"
		"xpos"			"9999"	[$WIN32]
		"ypos"			"r88"	[$WIN32]
		"xpos"			"57"	[$X360]
		"ypos"			"r110"	[$X360]
		"zpos"			"2"
		"wide"			"75"
		"tall"			"75"
		"visible"		"1"
		"enabled"		"1"
		"image"			"../hud/class_scoutred"
		"scaleImage"	"1"	
	}
	"PlayerStatusSpyImage"
	{
		"ControlName"	"CTFImagePanel"
		"fieldName"		"PlayerStatusSpyImage"
		"xpos"			"9999"		[$WIN32]
		"ypos"			"r67"	[$WIN32]
		"xpos"			"35"	[$X360]
		"ypos"			"r89"	[$X360]
		"zpos"			"2"
		"wide"			"55"
		"tall"			"55"
		"visible"		"1"
		"enabled"		"1"
		"image"			"../hud/class_spyred"
		"scaleImage"	"1"	
		"teambg_2"		"../hud/class_spyred"
		"teambg_3"		"../hud/class_spyblue"			
	}	
	"PlayerStatusSpyOutlineImage"
	{
		"ControlName"	"CTFImagePanel"
		"fieldName"		"PlayerStatusSpyOutlineImage"
		"xpos"			"9999"		[$WIN32]
		"ypos"			"r67"	[$WIN32]
		"xpos"			"35"	[$X360]
		"ypos"			"r89"	[$X360]
		"zpos"			"7"
		"wide"			"55"
		"tall"			"55"
		"visible"		"0"
		"enabled"		"1"
		"image"			"../hud/class_spy_outline"
		"scaleImage"	"1"	
	}		

	"classmodelpanelBG"
	{
		"ControlName"	"CTFImagePanel"
		"fieldName"		"classmodelpanelBG"
		"xpos"			"9999"		[$WIN32]
		"ypos"			"r60"	[$WIN32]
		"xpos"			"41"	[$X360]
		"ypos"			"r82"	[$X360]
		"zpos"			"1"		
		"wide"			"109"
		"tall"			"50"
		"visible"		"1"
		"enabled"		"1"
		"scaleImage"	"1"
		"image"				"../hud/character_red_bg_clipped"	
		"teambg_2"			"../hud/character_red_bg_clipped"
		"teambg_2_lodef"	"../hud/character_red_bg_lodef_clipped"
		"teambg_3"			"../hud/character_blue_bg_clipped"
		"teambg_3_lodef"	"../hud/character_blue_bg_lodef_clipped"
	}

	"classmodelpanel"
	{
		"ControlName"	"CTFPlayerModelPanel"
		"fieldName"		"classmodelpanel"
		
		"xpos"			"0"
		"ypos"			"r210"
		"zpos"			"2"		
		"wide"			"100"
		"tall"			"200"
		"autoResize"	"0"
		"pinCorner"		"0"
		"visible"		"1"
		"enabled"		"1"
		
		"render_texture"	"0"
		"fov"			"12"
		"allow_rot"		"1"

		"disable_speak_event"	"1"
				
		"model"
		{
			"force_pos"	"1"

			"angles_x" "0"
			"angles_y" "172"
			"angles_z" "0"
			"origin_x" "200"
			"origin_y" "0"
			"origin_z" "-60"
			"frame_origin_x"	"0"
			"frame_origin_y"	"0"
			"frame_origin_z"	"0"
			"spotlight" "1"
		
			"modelname"		""
			
			"animation"
			{
				"name"		"PRIMARY"
				"activity"	"ACT_MP_RUN_PRIMARY"
				"default"	"1"
			}
			"animation"
			{
				"name"		"SECONDARY"
				"activity"	"ACT_MP_RUN_SECONDARY"
			}
			"animation"
			{
				"name"		"MELEE"
				"activity"	"ACT_MP_RUN_MELEE"
			}
			"animation"
			{
				"name"		"BUILDING"
				"activity"	"ACT_MP_RUN_BUILDING"
			}
			"animation"
			{
				"name"		"PDA"
				"activity"	"ACT_MP_RUN_PDA"
			}
			"animation"
			{
				"name"		"ITEM1"
				"activity"	"ACT_MP_RUN_ITEM1"
			}						
			"animation"
			{
				"name"		"ITEM2"
				"activity"	"ACT_MP_RUN_ITEM2"
			}									
			"animation"
			{
				"name"		"MELEE_ALLCLASS"
				"activity"	"ACT_MP_RUN_MELEE_ALLCLASS"
			}
			"animation"
			{
				"name"		"PRIMARY2"
				"activity"	"ACT_MP_RUN_PRIMARY"
			}
			"animation"
			{
				"name"		"SECONDARY2"
				"activity"	"ACT_MP_RUN_SECONDARY2"
			}
		}

		"customclassdata"
		{
			"undefined"
			{
			}
			"Scout"
			{
				"fov"			"25"
				"angles_x"		"-20"
				"angles_y"		"145"
				"angles_z"		"10"
				"origin_x"		"105"
				"origin_y"		"4"
				"origin_z"		"-45"
			}
			"Sniper"
			{
				"fov"			"25"
				"angles_x"		"-20"
				"angles_y"		"172"
				"angles_z"		"4"
				"origin_x"		"130"
				"origin_y"		"-3"
				"origin_z"		"-55"
			}
			"Soldier"
			{
				"fov"			"25"
				"angles_x"		"-20"
				"angles_y"		"160"
				"angles_z"		"6"
				"origin_x"		"125"
				"origin_y"		"-5"
				"origin_z"		"-55"
			}
			"Demoman"
			{
				"fov"			"25"
				"angles_x"		"-20"
				"angles_y"		"170"
				"angles_z"		"5"
				"origin_x"		"138"
				"origin_y"		"-4"
				"origin_z"		"-60"
			}
			"Medic"
			{
				"fov"			"20"
				"angles_x"		"-14"
				"angles_y"		"160"
				"angles_z"		"7"
				"origin_x"		"150"
				"origin_y"		"-5"
				"origin_z"		"-50"
			}
			"Heavy"
			{
				"fov"			"20"
				"angles_x"		"-14"
				"angles_y"		"220"
				"angles_z"		"-10"
				"origin_x"		"200"
				"origin_y"		"0"
				"origin_z"		"-67"
			}
			"Pyro"
			{
				"fov"			"20"
				"angles_x"		"-15"
				"angles_y"		"172"
				"angles_z"		"4"
				"origin_x"		"175"
				"origin_y"		"-5"
				"origin_z"		"-60"
			}
			"Spy"
			{
				"fov"			"20"
				"angles_x"		"-20"
				"angles_y"		"160"
				"angles_z"		"5"
				"origin_x"		"160"
				"origin_y"		"0"
				"origin_z"		"-55"
			}
			"Engineer"
			{
				"fov"			"20"
				"angles_x"		"-17"
				"angles_y"		"168"
				"angles_z"		"4"
				"origin_x"		"140"
				"origin_y"		"-2"
				"origin_z"		"-47"
			}
		}
	}

	"CarryingWeapon"
	{
		"ControlName"			"EditablePanel"
		"fieldName"				"CarryingWeapon"
		"xpos"					"20"
		"ypos"					"r27"
		"zpos"					"100"
		"wide"					"500"
		"tall"	 				"28"

		"CarryingBackground"
		{
			"ControlName"			"CTFImagePanel"
			"fieldName"				"CarryingBackground"
			"xpos"					"0"
			"ypos"					"0"
			"zpos"					"0"
			"wide"					"p1"
			"tall"	 				"f0"
			"autoResize"			"0"
			"pinCorner"				"0"
			"visible"				"1"
			"enabled"				"1"
			"image"					"../hud/color_panel_brown"
			"scaleImage"			"1"
			"teambg_1"				"../hud/color_panel_brown"
			"teambg_2"				"../hud/color_panel_red"
			"teambg_2_lodef"		"../hud/color_panel_red"
			"teambg_3"				"../hud/color_panel_blu"
			"teambg_3_lodef"		"../hud/color_panel_blu"
			"proportionaltoparent"	"1"
		
			"src_corner_height"		"23"				// pixels inside the image
			"src_corner_width"		"23"
			
			"draw_corner_width"		"5"				// screen size of the corners ( and sides ), proportional
			"draw_corner_height" 	"5"	
		}

		"CarryingLabel"
		{	
			"ControlName"		"CExLabel"
			"fieldName"			"CarryingLabel"
			"font"				"ReplayBrowserSmallest"
			"xpos"				"5"
			"ypos"				"3"
			"zpos"				"1"
			"wide"				"200"
			"tall"	 			"f0"
			"autoResize"		"0"
			"pinCorner"			"0"
			"visible"			"1"
			"enabled"			"1"
			"textAlignment"		"North-West"
			"dulltext"			"0"
			"brighttext"		"0"
			"proportionaltoparent"	"1"
			"auto_wide_tocontents"	"1"
			"labelText"			"%carrying%"
		}

		"CarryingLabelDropShadow"
		{	
			"ControlName"		"CExLabel"
			"fieldName"			"CarryingLabelDropShadow"
			"font"				"ReplayBrowserSmallest"
			"xpos"				"p0.011"
			"ypos"				"p0.12"
			"zpos"				"0"
			"wide"				"200"
			"tall"	 			"f0"
			"autoResize"		"0"
			"pinCorner"			"0"
			"visible"			"1"
			"enabled"			"1"
			"textAlignment"		"North-West"
			"dulltext"			"0"
			"brighttext"		"0"
			"proportionaltoparent"	"1"
			"auto_wide_tocontents"	"1"
			"fgcolor_override"	"Black"
			"labelText"			"%carrying%"
		}

		"OwnerLabel"
		{	
			"ControlName"		"Label"
			"fieldName"			"OwnerLabel"
			"font"				"FontStoreOriginalPrice"
			"xpos"				"5"
			"ypos"				"12"
			"zpos"				"0"
			"wide"				"200"
			"tall"	 			"f0"
			"autoResize"		"0"
			"pinCorner"			"0"
			"visible"			"1"
			"enabled"			"1"
			"textAlignment"		"North-West"
			"dulltext"			"0"
			"brighttext"		"0"
			"proportionaltoparent"	"1"
			"auto_wide_tocontents"	"1"
		}
	}
}
