"Resource/UI/HudTeamGoal.res"
{
	"HudTeamGoalBG"
	{
		"ControlName"		"CTFImagePanel"
		"fieldName"		"HudTeamGoalBG"
		"xpos"			"99999"
		"ypos"			"0"
		"zpos"			"-1"
		"wide"			"320"
		"tall"			"150"
		"autoResize"		"0"
		"pinCorner"		"0"
		"visible"		"1"
		"enabled"		"1"
		"image"			"../hud/death_panel_blue_bg"
		"scaleImage"		"1"
		"teambg_2"		"../hud/death_panel_red_bg"
		"teambg_3"		"../hud/death_panel_blue_bg"
	}
	"SwitchLabel"
	{	
		"ControlName"		"Label"
		"fieldName"		"SwitchLabel"
		"font"			"HudFontSmallBold"
		"xpos"			"99999"
		"ypos"			"20"
		"zpos"			"1"
		"wide"			"220"	[$WIN32]
		"wide"			"180"	[$X360]
		"tall"			"15"
		"autoResize"		"0"
		"pinCorner"		"0"
		"visible"		"1"
		"enabled"		"1"
		"wrap"			"1"
		"labelText"		"#TF_teamswitch_attackers"
		"textAlignment"		"North"
	}
	"GoalLabel"
	{	
		"ControlName"		"Label"
		"fieldName"		"GoalLabel"
		"font"			"HudFontSmall"
		"xpos"			"99999"
		"ypos"			"35"
		"zpos"			"1"
		"wide"			"220"
		"wide_hidef"	"200"
		"wide_lodef"		"230"
		"tall"			"55"
		"tall_lodef"	"60"
		"autoResize"		"0"
		"pinCorner"		"0"
		"visible"		"1"
		"enabled"		"1"
		"wrap"			"1"
		"labelText"		""
		"textAlignment"		"North"
	}
	"GoalImage"
	{
		"ControlName"		"CTFImagePanel"
		"fieldName"		"GoalImage"
		"xpos"			"99999"
		"ypos"			"25"
		"zpos"			"1"
		"wide"			"45"
		"tall"			"45"
		"autoResize"		"0"
		"pinCorner"		"0"
		"visible"		"1"
		"enabled"		"1"
		"image"			"../hud/hud_icon_attack"
		"scaleImage"		"1"
	}
}
