"Resource/UI/LobbyContainerFrame.res"
{
	"LobbyContainerFrame"
	{
		"ControlName"	"EditablePanel"
		"fieldName"		"LobbyContainerFrame"
		"xpos"			"9999"
		"ypos"			"0"
		"wide"			"f0"
		"tall"			"480"
		"autoResize"	"0"
		"pinCorner"		"0"
		"visible"		"1"
		"enabled"		"1"
		"tabPosition"	"0"
		"settitlebarvisible"	"1"
		"PaintBackgroundType"	"0"
		"bgcolor_override"				"46 43 42 0"
		"infocus_bgcolor_override"		"46 43 42 0"
		"outoffocus_bgcolor_override"	"46 43 42 0"
		
		"title"			"#CharInfoAndSetup"
		"title_font"	"HudFontMediumBold"
		"titletextinsetX"	"40"
		"titletextinsetY"	"0"
		"titlebarfgcolor_override"				"200 187 161 255"
		"titlebardisabledfgcolor_override"		"200 187 161 255"
		"titlebarbgcolor_override"				"46 43 42 255"
		
		"clientinsetx_override"			"0"
		"sheetinset_bottom"				"40"

		"NavToRelay"			"BackButton"
	}
	
	"BackgroundHeader"
	{
		"ControlName"	"ImagePanel"
		"fieldName"		"BackgroundHeader"
		"xpos"			"99999"
		"ypos"			"0"
		"zpos"			"-2"
		"wide"			"f0"
		"tall"			"120"
		"visible"		"1"
		"enabled"		"1"
		"image"			"loadout_header"
		"tileImage"		"1"
	}				
	"BackgroundFooter"
	{
		"ControlName"	"ImagePanel"
		"fieldName"		"BackgroundFooter"
		"xpos"			"0"
		"ypos"			"420"
		"zpos"			"1"
		"wide"			"f0"
		"tall"			"60"
		"visible"		"1"
		"enabled"		"1"
		"image"			"loadout_bottom_gradient"
		"tileImage"		"1"
	}				
	"FooterLine"
	{
		"ControlName"	"ImagePanel"
		"fieldName"		"FooterLine"
		"xpos"			"0"
		"ypos"			"420"
		"zpos"			"2"
		"wide"			"f0"
		"tall"			"10"
		"visible"		"1"
		"enabled"		"1"
		"image"			"loadout_solid_line"
		"scaleImage"	"1"
	}				
	
	"Sheet"
	{
		"ControlName"	"EditablePanel"
		"fieldName"		"Sheet"
		"tabxindent"	"80"
		"tabxdelta"		"10"
		"tabwidth"		"240"
		"tabheight"		"34"
		"transition_time" "0"
		
		"HeaderLine"
		{
			"ControlName"	"ImagePanel"
			"fieldName"		"HeaderLine"
			"xpos"			"0"
			"ypos"			"32"
			"zpos"			"5"
			"wide"			"f0"
			"tall"			"10"
			"visible"		"1"
			"enabled"		"1"
			"image"			"loadout_solid_line"
			"scaleImage"	"1"
		}				
		
		"tabskv"
		{
			"textinsetx"		"40"
			"font"				"HudFontMediumBold"
			"selectedcolor"		"200 187 161 255"
			"unselectedcolor"	"130 120 104 255"	
			"defaultBgColor_override"	"46 43 42 255"
			"paintbackground"	"0"
			"activeborder_override"	"OutlinedGreyBox"
			"normalborder_override" "OutlinedDullGreyBox"
			"mouseinputenabled"	"0"
		}
	}

	"BackButton"
	{
		"ControlName"	"CExButton"
		"fieldName"		"BackButton"
		"xpos"			"c-305"
		"ypos"			"437"
		"zpos"			"2"
		"wide"			"180"
		"tall"			"25"
		"autoResize"	"0"
		"pinCorner"		"3"
		"visible"		"1"
		"enabled"		"1"
		"tabPosition"	"0"
		"font"			"HudFontSmallBold"
		"textAlignment"	"center"
		"dulltext"		"0"
		"brighttext"	"0"
		"Command"		"back"

		"NavUp"			"PlayNowButton"
		"NavRight"		"LearnMoreButton"

		"sound_depressed"	"UI/buttonclick.wav"
		"sound_released"	"UI/buttonclickrelease.wav"
	}

	"NotificationsPresentPanel"
	{
		"ControlName"	"CNotificationsPresentPanel"
		"fieldName"		"NotificationsPresentPanel"
		"xpos"			"r200"
		"ypos"			"10"
		"zpos"			"10000"
		"wide"			"190"
		"tall"			"50"
		"visible"		"0"
		"enabled"		"1"
	}

	"MatchmakingBanPanel"
	{
		"ControlName"	"EditablePanel"
		"fieldName"		"MatchmakingBanPanel"
		"xpos"			"c-113"
		"ypos"			"428"
		"zpos"			"2"
		"wide"			"220"
		"tall"			"40"
		"visible"		"0"
		"enabled"		"1"
		"mouseinputenabled"	"0"
		"bgcolor_override"	"Black"

		"MatchmakingBanDurationLabel"
		{
			"ControlName"	"CExLabel"
			"fieldName"		"MatchmakingBanDurationLabel"
			"font"			"HudFontSmallest"
			"fgcolor_override"	"RedSolid"
			"labelText"		"#TF_Matchmaking_Ban_Duration_Remaining"
			"textalignment"	"center"
			"xpos"			"5"
			"ypos"			"0"
			"zpos"			"2"
			"wide"			"200"
			"tall"			"40"
			"visible"		"1"
			"enabled"		"1"
			"autoResize"	"1"
			"pinCorner"		"0"
		}
	}


	"NextButton"
	{
		"ControlName"	"CExImageButton"
		"fieldName"		"NextButton"
		"xpos"			"c+120"
		"ypos"			"437"
		"zpos"			"2"
		"wide"			"180"
		"tall"			"25"
		"autoResize"	"0"
		//"pinCorner"		"3"
		"visible"		"1"
		"enabled"		"1"
		"tabPosition"	"0"
		"font"			"HudFontSmallBold"
		"textAlignment"	"center"
		"dulltext"		"0"
		"brighttext"	"0"
		"Command"		"next"

		"NavUp"			"StartPartyButton"
		"NavDown"		"LearnMoreButton"
		"NavLeft"		"LearnMoreButton"

		"sound_depressed"	"UI/buttonclick.wav"
		"sound_released"	"UI/buttonclickrelease.wav"
	}

	"StartPartyButton"
	{
		"ControlName"	"CExButton"
		"fieldName"		"StartPartyButton"
		"xpos"			"c+110"
		"ypos"			"310"
		"zpos"			"10"
		"wide"			"180"
		"tall"			"25"
		"autoResize"	"0"
		"pinCorner"		"0"
		"visible"		"1"
		"enabled"		"1"
		"tabPosition"	"0"
		"labelText"		"#TF_Matchmaking_StartParty"
		"font"			"HudFontSmallBold"
		"textAlignment"	"center"
		"textinsetx"	"50"
		"dulltext"		"0"
		"brighttext"	"0"
		"Command"		"start_party"

		"NavUp"			"Sheet"
		"NavDown"		"NextButton"
		"NavLeft"		"PracticeButton"

		"sound_depressed"	"UI/buttonclick.wav"
		"sound_released"	"UI/buttonclickrelease.wav"
	}
}
