"Resource/UI/Spectator.res"
{
	"Spectator"
	{
		"ControlName"		"Frame"
		"fieldName"		"Spectator"
		"tall"			"480"
		"autoResize"		"0"
		"pinCorner"		"0"
		"visible"		"1"
		"enabled"		"1"
		"tabPosition"		"0"
	}
	"specgui"
	{
	}
	"topbar"
	{
		"ControlName"		"Panel"
		"fieldName"		"TopBar"
		"xpos"			"0"
		"ypos"			"0"
		"tall"			"0"
		"wide"			"0"
		"autoResize"		"0"
		"pinCorner"		"0"
		"visible"		"1"
		"enabled"		"1"
		"tabPosition"		"0"
	}
	"BottomBar"
	{
		"ControlName"	"Frame"
		"fieldName"		"BottomBar"
		"xpos"			"0"
		"ypos"			"0"
		"ypos_minmode"	"r20"
		"tall"			"0"
		"wide" 			"0"
		"tall_minmode"	"0"		
		"autoResize"	"0"
		"pinCorner"		"0"
		"visible"		"0"
		"enabled"		"0"
		"tabPosition"		"0"
	}
	"bottombarblank"
	{
		"ControlName"		"Panel"
		"fieldName"		"bottombarblank"
		"xpos"			"0"
		"ypos"			"r"
		"ypos_minmode"	"r0"
		"tall"			"0"		// this needs to match the size of BottomBar
		"tall_minmode"	"0"		
		"wide"			"0"
		"autoResize"	"0"
		"pinCorner"		"0"
		"visible"		"1"
		"visible_minmode"		"0"
		"enabled"		"1"
		"tabPosition"		"0"
	}
	"ReinforcementsLabel"
	{
		"ControlName"		"CExLabel"
		"fieldName"		"ReinforcementsLabel"
		"xpos"			"c-300"	[$WIN32]
		"xpos_minmode"	"c-300"
		"xpos"			"c-200"	[$X360]
		"ypos"			"50"	[$WIN32]
		"ypos_minmode"	"3"		[$WIN32]
		"ypos"			"67"	[$X360]
		"ypos_hidef"	"79"
		"ypos_lodef"	"85"
		"wide"			"600"	[$WIN32]
		"wide_minmode"	"300"
		"wide"			"400"	[$X360]
		"tall"			"18"
		"tall_hidef"		"23"
		"autoResize"		"0"
		"pinCorner"		"0"
		"visible"		"1"
		"enabled"		"1"
		"labelText"		"#game_respawntime_in_secs"
		"textAlignment"		"Center"
		"font"			"TacoSuperBoldSmall"
		"fgcolor_override"		"White"
	}
	"BuyBackLabel"
	{
		"ControlName"		"CExLabel"
		"fieldName"		"BuyBackLabel"
		"xpos"			"0"
		"ypos"			"0"
		"wide"			"400"
		"tall"			"f0"
		"autoResize"		"0"
		"pinCorner"		"0"
		"visible"		"0"
		"enabled"		"1"
		"labelText"		""
		"textAlignment"		"center"
		"font"			"HudFontSmall"
		"wrap"			"1"
		"centerwrap"	"1"
	}
	"MapLabel"
	{
		"ControlName"		"CExLabel"
		"fieldName"		"MapLabel"
		"font"			"TacoSuperBoldSmall"
		"font_hidef"		"HudFontMedium"
		"fgcolor"		"White"
		"xpos"			"0"
		"ypos"			"0"
		"wide"			"240"
		"tall"			"20"
		"tall_hidef"		"30"
		"autoResize"		"0"
		"pinCorner"		"0"
		"visible"		"1"
		"visible_minmode"		"0"
		"enabled"		"1"
		"labelText"		"map: cp_bridge"
		"textAlignment"		"Left"
	}
	"ClassOrTeamLabel"
	{
		"ControlName"		"CExLabel"
		"fieldName"		"ClassOrTeamLabel"
		"xpos"			"9999"
		"xpos_hidef"	"c-65"
		"xpos_lodef"	"40"
		"ypos"			"68"
		"ypos_hidef"	"90"
		"ypos_lodef"	"30"	
		"wide"			"170"
		"wide_hidef"	"130"
		"wide_lodef"	"220"
		"tall"			"15"
		"tall_lodef"	"25"
		"zpos"			"2"
		"autoResize"		"0"
		"pinCorner"		"0"
		"visible"		"1"	[$WIN32]
		"visible_minmode"		"0"
		"visible"		"0"	[$X360]
		"enabled"		"1"
		"labelText"		"#TF_Spectator_ChangeTeam"
		"textAlignment"		"center"
		"textAlignment_lodef"		"north-west"
		"font"			"SpectatorKeyHints"
		"font_hidef"	"HudFontSmallest"
		"font_lodef"	"HudFontSmall"
		"wrap_lodef"			"1"
	}
	"SwitchCamModeKeyLabel"
	{
		"ControlName"		"CExLabel"
		"fieldName"		"SwitchCamModeKeyLabel"
		"xpos"			"9999"		[$WIN32]
		"ypos"			"10"	[$WIN32]
		"xpos"			"53"	[$X360]
		"ypos"			"40"	[$X360]
		"wide"			"60"	[$WIN32]
		"wide"			"60"	[$X360]
		"tall"			"20"
		"autoResize"		"0"
		"pinCorner"		"0"
		"visible"		"0"	[$WIN32]
		"visible_minmode"		"0"
		"visible"		"0"	[$X360]
		"enabled"		"0"
		"labelText"		"#TF_Spectator_ChangeTeam"
		"textAlignment"		"east"
		"font"			"SpectatorKeyHints"
		
	}
	"SwitchCamModeLabel"
	{
		"ControlName"		"CExLabel"
		"fieldName"		"SwitchCamModeLabel"
		"xpos"			"9999"	[$WIN32]
		"ypos"			"10"	[$WIN32]
		"xpos"			"128"	[$X360]
		"ypos"			"40"	[$X360]		
		"wide"			"125"	[$WIN32]
		"wide"			"95"	[$X360]		
		"tall"			"20"
		"autoResize"		"0"
		"pinCorner"		"0"
		"visible"		"0"	[$WIN32]
		"visible_minmode"		"0"
		"visible"		"0"	[$X360]
		"enabled"		"0"
		"labelText"		"#TF_Spectator_SwitchCamMode"
		"textAlignment"		"west"
		"font"			"SpectatorKeyHints"
	}
	"CycleTargetFwdKeyLabel"
	{
		"ControlName"		"CExLabel"
		"fieldName"		"CycleTargetFwdKeyLabel"
		"xpos"			"9999"	[$WIN32]
		"ypos"			"20"	[$WIN32]
		"xpos"			"53"	[$X360]
		"ypos"			"50"	[$X360]		
		"wide"			"60"	[$WIN32]
		"wide"			"60"	[$X360]
		"tall"			"20"
		"autoResize"		"0"
		"pinCorner"		"0"
		"visible"		"0"	[$WIN32]
		"visible_minmode"		"0"
		"visible"		"0"	[$X360]
		"enabled"		"0"
		"labelText"		"#TF_Spectator_ClassOrTeamKey"
		"textAlignment"		"east"
		"font"			"SpectatorKeyHints"
	}
	"CycleTargetFwdLabel"
	{
		"ControlName"		"CExLabel"
		"fieldName"		"CycleTargetFwdLabel"
		"xpos"			"9999"	[$WIN32]
		"ypos"			"20"	[$WIN32]
		"xpos"			"128"	[$X360]
		"ypos"			"50"	[$X360]		
		"wide"			"125"	[$WIN32]
		"wide"			"95"	[$X360]	
		"tall"			"20"
		"autoResize"		"0"
		"pinCorner"		"0"
		"visible"		"0"	[$WIN32]
		"visible_minmode"		"0"
		"visible"		"0"	[$X360]
		"enabled"		"0"
		"labelText"		"#TF_Spectator_CycleTargetFwd"
		"textAlignment"		"west"
		"font"			"SpectatorKeyHints"
	}
	"CycleTargetRevKeyLabel"
	{
		"ControlName"		"CExLabel"
		"fieldName"		"CycleTargetRevKeyLabel"
		"xpos"			"9999"	[$WIN32]
		"ypos"			"30"	[$WIN32]
		"xpos"			"53"	[$X360]
		"ypos"			"60"	[$X360]		
		"wide"			"60"	[$WIN32]
		"wide"			"60"	[$X360]		
		"tall"			"20"
		"autoResize"		"0"
		"pinCorner"		"0"
		"visible"		"0"	[$WIN32]
		"visible_minmode"		"0"
		"visible"		"0"	[$X360]
		"enabled"		"0"
		"labelText"		"#TF_Spectator_ClassOrTeamKey"
		"textAlignment"		"east"
		"font"			"SpectatorKeyHints"
	}
	"CycleTargetRevLabel"
	{
		"ControlName"		"CExLabel"
		"fieldName"		"CycleTargetRevLabel"
		"xpos"			"9999"	[$WIN32]
		"ypos"			"30"	[$WIN32]
		"xpos"			"128"	[$X360]
		"ypos"			"60"	[$X360]		
		"wide"			"125"	[$WIN32]
		"wide"			"95"	[$X360]
		"tall"			"20"
		"autoResize"		"0"
		"pinCorner"		"0"
		"visible"		"0"	[$WIN32]
		"visible_minmode"		"0"
		"visible"		"0"	[$X360]
		"enabled"		"0"
		"labelText"		"#TF_Spectator_CycleTargetRev"
		"textAlignment"		"west"
		"font"			"SpectatorKeyHints"
	}
	"itempanel"
	{
		"ControlName"	"CItemModelPanel"
		"fieldName"		"itempanel"
		"xpos"			"0"
		"ypos"			"0"
		"zpos"			"10"
		"wide"			"190"
		"tall"			"100"
		"visible"		"0"
		"bgcolor_override"		"255 255 255 0"
		"PaintBackgroundType"	"0"
		
		"model_ypos"		"10"
		"model_center_x"	"1"
		"model_wide"		"90"
		"model_tall"		"60"
		
		"text_xpos"		"10"
		"text_ypos"		"10"
		"text_wide"		"170"
		"text_center"	"1"
		
		"max_text_height"	"100"
		"padding_height"	"10"
		"resize_to_text"	"1"
		"text_forcesize"	"2"
		
		"itemmodelpanel"
		{
			"fieldName"		"itemmodelpanel"
			"use_item_rendertarget" "0"
			"useparentbg"		"1"
		}
		
		"ItemLabel"
		{	
			"ControlName"	"Label"
			"fieldName"		"ItemLabel"
			"font"			"DefaultSmall"
			"xpos"			"10"
			"ypos"			"3"
			"zpos"			"1"
			"wide"			"270"
			"tall"			"9"
			"autoResize"	"0"
			"pinCorner"		"0"
			"visible"		"1"
			"enabled"		"1"
			"labelText"		"#FreezePanel_Item"
			"textAlignment"	"Left"
			"dulltext"		"0"
			"brighttext"	"0"
		}
	}	
	"spectator_extras"
	{
		"ControlName"	"EditablePanel"
		"fieldName"		"spectator_extras"
		"xpos"			"0"
		"ypos"			"0"
		"wide"			"f0"
		"tall"			"480"
		"autoResize"	"0"
		"pinCorner"		"0"
		"visible"		"1"
		"enabled"		"1"
	}		
}
